{
  "Comment.nvim": { "branch": "master", "commit": "e30b7f2008e52442154b66f7c519bfd2f1e32acb" },
  "LuaSnip": { "branch": "master", "commit": "03c8e67eb7293c404845b3982db895d59c0d1538" },
  "aerial.nvim": { "branch": "master", "commit": "e75a3df2c20b3a98c786f5e61587d74a7a6b61d6" },
  "bufferline.nvim": { "branch": "main", "commit": "2e3c8cc5a57ddd32f1edd2ffd2ccb10c09421f6c" },
  "cmp-buffer": { "branch": "main", "commit": "3022dbc9166796b644a841a02de8dd1cc1d311fa" },
  "cmp-nvim-lsp": { "branch": "main", "commit": "39e2eda76828d88b773cc27a3f61d2ad782c922d" },
  "cmp-path": { "branch": "main", "commit": "91ff86cd9c29299a64f968ebb45846c485725f23" },
  "cmp_luasnip": { "branch": "master", "commit": "05a9ab28b53f71d1aece421ef32fee2cb857a843" },
  "conform.nvim": { "branch": "master", "commit": "25d48271e3d4404ba017cb92a37d3a681c1ad149" },
  "dressing.nvim": { "branch": "master", "commit": "6741f1062d3dc6e4755367a7e9b347b553623f04" },
  "friendly-snippets": { "branch": "main", "commit": "00ebcaa159e817150bd83bfe2d51fa3b3377d5c4" },
  "gitsigns.nvim": { "branch": "main", "commit": "0ed466953fe5885166e0d60799172a8b1f752d16" },
  "hop.nvim": { "branch": "master", "commit": "036462a345792279c58f2f6445756efab706f04a" },
  "indent-blankline.nvim": { "branch": "master", "commit": "65e20ab94a26d0e14acac5049b8641336819dfc7" },
  "lazy.nvim": { "branch": "main", "commit": "077102c5bfc578693f12377846d427f49bc50076" },
  "lspkind.nvim": { "branch": "master", "commit": "cff4ae321a91ee3473a92ea1a8c637e3a9510aec" },
  "lualine.nvim": { "branch": "master", "commit": "544dd1583f9bb27b393f598475c89809c4d5e86b" },
  "mason-lspconfig.nvim": { "branch": "main", "commit": "ba9c2f0b93deb48d0a99ae0e8d8dd36f7cc286d6" },
  "mason-tool-installer.nvim": { "branch": "main", "commit": "c5e07b8ff54187716334d585db34282e46fa2932" },
  "mason.nvim": { "branch": "main", "commit": "e2f7f9044ec30067bc11800a9e266664b88cda22" },
  "neodev.nvim": { "branch": "main", "commit": "46aa467dca16cf3dfe27098042402066d2ae242d" },
  "noice.nvim": { "branch": "main", "commit": "448bb9c524a7601035449210838e374a30153172" },
  "nui.nvim": { "branch": "main", "commit": "61574ce6e60c815b0a0c4b5655b8486ba58089a1" },
  "nvim-autopairs": { "branch": "master", "commit": "e38c5d837e755ce186ae51d2c48e1b387c4425c6" },
  "nvim-cmp": { "branch": "main", "commit": "ae644feb7b67bf1ce4260c231d1d4300b19c6f30" },
  "nvim-lint": { "branch": "master", "commit": "efc6fc83f0772283e064c53a8f9fb5645bde0bc0" },
  "nvim-lsp-file-operations": { "branch": "master", "commit": "92a673de7ecaa157dd230d0128def10beb56d103" },
  "nvim-lspconfig": { "branch": "master", "commit": "e6528f4613c8db2e04be908eb2b5886d63f62a98" },
  "nvim-notify": { "branch": "master", "commit": "d333b6f167900f6d9d42a59005d82919830626bf" },
  "nvim-surround": { "branch": "main", "commit": "ec2dc7671067e0086cdf29c2f5df2dd909d5f71f" },
  "nvim-tree.lua": { "branch": "master", "commit": "48d0e82f9434691cc50d970898142a8c084a49d6" },
  "nvim-treesitter": { "branch": "master", "commit": "09bad640e4507885fa0e7035348c7854c531b3d6" },
  "nvim-treesitter-context": { "branch": "master", "commit": "2aba92ceb1479485953007f4d5adf34d0b66917e" },
  "nvim-ts-autotag": { "branch": "main", "commit": "dc5e1687ab76ee02e0f11c5ce137f530b36e98b3" },
  "nvim-ts-context-commentstring": { "branch": "main", "commit": "6b5f95aa4d24f2c629a74f2c935c702b08dbde62" },
  "nvim-web-devicons": { "branch": "master", "commit": "5be6c4e685618b99c3210a69375b38a1202369b4" },
  "onedark.nvim": { "branch": "master", "commit": "fae34f7c635797f4bf62fb00e7d0516efa8abe37" },
  "overseer.nvim": { "branch": "master", "commit": "cbcdcbae3704c21d3ff96a1927d952b8a966b08a" },
  "plenary.nvim": { "branch": "master", "commit": "a3e3bc82a3f95c5ed0d7201546d5d2c19b20d683" },
  "render-markdown": { "branch": "main", "commit": "70ae5e9e517c930f74c3ad9e4ef325314967f2a0" },
  "telekasten.nvim": { "branch": "main", "commit": "319276a7853ff996b7bb1ed4250d8047c84ad29d" },
  "telescope-fzf-native.nvim": { "branch": "main", "commit": "cf48d4dfce44e0b9a2e19a008d6ec6ea6f01a83b" },
  "telescope.nvim": { "branch": "0.1.x", "commit": "a0bbec21143c7bc5f8bb02e0005fa0b982edc026" },
  "todo-comments.nvim": { "branch": "main", "commit": "8f45f353dc3649cb9b44cecda96827ea88128584" },
  "tokyonight.nvim": { "branch": "main", "commit": "b0e7c7382a7e8f6456f2a95655983993ffda745e" },
  "trouble.nvim": { "branch": "main", "commit": "6efc446226679fda0547c0fd6a7892fd5f5b15d8" },
  "vim-illuminate": { "branch": "master", "commit": "5eeb7951fc630682c322e88a9bbdae5c224ff0aa" },
  "vim-maximizer": { "branch": "master", "commit": "2e54952fe91e140a2e69f35f22131219fcd9c5f1" },
  "vim-swap": { "branch": "master", "commit": "9358bfdc5e377aa13e7c2c2dd8699ba32b0dcf83" },
  "which-key.nvim": { "branch": "main", "commit": "6c1584eb76b55629702716995cca4ae2798a9cca" },
  "yanky.nvim": { "branch": "main", "commit": "73215b77d22ebb179cef98e7e1235825431d10e4" }
}
